%YAML 1.1
%TAG !u! tag:unity3d.com,2011:
--- !u!1001 &1078176291413101201
PrefabInstance:
  m_ObjectHideFlags: 0
  serializedVersion: 2
  m_Modification:
    m_TransformParent: {fileID: 0}
    m_Modifications:
    - target: {fileID: 54568415284096941, guid: 8eafb874da04ef54ab2a3434d707da86,
        type: 3}
      propertyPath: m_Name
      value: BurstGunAI
      objectReference: {fileID: 0}
    - target: {fileID: 1152584652339890677, guid: 8eafb874da04ef54ab2a3434d707da86,
        type: 3}
      propertyPath: m_LocalPosition.x
      value: 0
      objectReference: {fileID: 0}
    - target: {fileID: 1152584652339890677, guid: 8eafb874da04ef54ab2a3434d707da86,
        type: 3}
      propertyPath: m_LocalPosition.y
      value: 3
      objectReference: {fileID: 0}
    - target: {fileID: 1152584652339890677, guid: 8eafb874da04ef54ab2a3434d707da86,
        type: 3}
      propertyPath: m_LocalPosition.z
      value: 0
      objectReference: {fileID: 0}
    - target: {fileID: 1152584652339890677, guid: 8eafb874da04ef54ab2a3434d707da86,
        type: 3}
      propertyPath: m_LocalRotation.x
      value: 0
      objectReference: {fileID: 0}
    - target: {fileID: 1152584652339890677, guid: 8eafb874da04ef54ab2a3434d707da86,
        type: 3}
      propertyPath: m_LocalRotation.y
      value: 0
      objectReference: {fileID: 0}
    - target: {fileID: 1152584652339890677, guid: 8eafb874da04ef54ab2a3434d707da86,
        type: 3}
      propertyPath: m_LocalRotation.z
      value: 0
      objectReference: {fileID: 0}
    - target: {fileID: 1152584652339890677, guid: 8eafb874da04ef54ab2a3434d707da86,
        type: 3}
      propertyPath: m_LocalRotation.w
      value: 1
      objectReference: {fileID: 0}
    - target: {fileID: 1152584652339890677, guid: 8eafb874da04ef54ab2a3434d707da86,
        type: 3}
      propertyPath: m_RootOrder
      value: 0
      objectReference: {fileID: 0}
    - target: {fileID: 1152584652339890677, guid: 8eafb874da04ef54ab2a3434d707da86,
        type: 3}
      propertyPath: m_LocalEulerAnglesHint.x
      value: 0
      objectReference: {fileID: 0}
    - target: {fileID: 1152584652339890677, guid: 8eafb874da04ef54ab2a3434d707da86,
        type: 3}
      propertyPath: m_LocalEulerAnglesHint.y
      value: 0
      objectReference: {fileID: 0}
    - target: {fileID: 1152584652339890677, guid: 8eafb874da04ef54ab2a3434d707da86,
        type: 3}
      propertyPath: m_LocalEulerAnglesHint.z
      value: 0
      objectReference: {fileID: 0}
    - target: {fileID: -9212402122741847641, guid: 8eafb874da04ef54ab2a3434d707da86,
        type: 3}
      propertyPath: isDebug
      value: 0
      objectReference: {fileID: 0}
    - target: {fileID: -7627900400627018772, guid: 8eafb874da04ef54ab2a3434d707da86,
        type: 3}
      propertyPath: startingWeapon
      value: 
      objectReference: {fileID: 5569897065304753002, guid: 5cf87047fa3381f4c8313abef1c41bb2,
        type: 3}
    m_RemovedComponents: []
  m_SourcePrefab: {fileID: 100100000, guid: 8eafb874da04ef54ab2a3434d707da86, type: 3}
